Experiment: C2/data/SWF Data.CSV

Model,TBS1072C
Firmware Version,v2015-08-04-prequal4ch70_v1.3

Point Format,Y
Horizontal Units,S
Horizontal Scale,0.0004
Sample Interval,3.2e-06
Filter Frequency,2e+08
Record Length,2000
Gating,0.0% to 100.0%
Probe Attenuation,10
Vertical Units,V
Vertical Offset,0
Vertical Scale,1
Label,
TIME,CH1
-3.200e-03,0.06
-3.197e-03,0.06
-3.194e-03,0.06
-3.190e-03,0.06
-3.187e-03,0.06
-3.184e-03,0.06
-3.181e-03,0.06
-3.178e-03,0.06
-3.174e-03,0.06
-3.171e-03,0.06
-3.168e-03,0.06
-3.165e-03,0.06
-3.162e-03,0.06
-3.158e-03,0.06
-3.155e-03,0.06
-3.152e-03,0.06
-3.149e-03,0.06
-3.146e-03,0.06
-3.142e-03,0.06
-3.139e-03,0.06
-3.136e-03,0.06
-3.133e-03,0.06
-3.130e-03,0.06
-3.126e-03,0.06
-3.123e-03,0.06
-3.120e-03,0.06
-3.117e-03,0.06
-3.114e-03,0.06
-3.110e-03,0.06
-3.107e-03,0.06
-3.104e-03,0.06
-3.101e-03,0.06
-3.098e-03,0.06
-3.094e-03,0.06
-3.091e-03,0.06
-3.088e-03,0.06
-3.085e-03,0.06
-3.082e-03,0.06
-3.078e-03,0.06
-3.075e-03,0.06
-3.072e-03,0.06
-3.069e-03,0.06
-3.066e-03,0.1
-3.062e-03,0.26
-3.059e-03,0.42
-3.056e-03,0.54
-3.053e-03,0.7
-3.050e-03,0.86
-3.046e-03,0.98
-3.043e-03,1.1
-3.040e-03,1.22
-3.037e-03,1.34
-3.034e-03,1.46
-3.030e-03,1.58
-3.027e-03,1.7
-3.024e-03,1.78
-3.021e-03,1.9
-3.018e-03,2.02
-3.014e-03,2.06
-3.011e-03,2.18
-3.008e-03,2.26
-3.005e-03,2.34
-3.002e-03,2.42
-2.998e-03,2.5
-2.995e-03,2.58
-2.992e-03,2.66
-2.989e-03,2.7
-2.986e-03,2.78
-2.982e-03,2.86
-2.979e-03,2.94
-2.976e-03,3.02
-2.973e-03,3.06
-2.970e-03,3.1
-2.966e-03,3.18
-2.963e-03,3.22
-2.960e-03,3.26
-2.957e-03,3.34
-2.954e-03,3.38
-2.950e-03,3.42
-2.947e-03,3.46
-2.944e-03,3.54
-2.941e-03,3.58
-2.938e-03,3.62
-2.934e-03,3.66
-2.931e-03,3.7
-2.928e-03,3.74
-2.925e-03,3.78
-2.922e-03,3.82
-2.918e-03,3.86
-2.915e-03,3.9
-2.912e-03,3.9
-2.909e-03,3.94
-2.906e-03,3.98
-2.902e-03,4.02
-2.899e-03,4.06
-2.896e-03,4.06
-2.893e-03,4.1
-2.890e-03,4.1
-2.886e-03,4.14
-2.883e-03,4.18
-2.880e-03,4.18
-2.877e-03,4.22
-2.874e-03,4.22
-2.870e-03,4.26
-2.867e-03,4.3
-2.864e-03,4.3
-2.861e-03,4.34
-2.858e-03,4.34
-2.854e-03,4.38
-2.851e-03,4.38
-2.848e-03,4.42
-2.845e-03,4.42
-2.842e-03,4.46
-2.838e-03,4.46
-2.835e-03,4.46
-2.832e-03,4.46
-2.829e-03,4.46
-2.826e-03,4.54
-2.822e-03,4.54
-2.819e-03,4.54
-2.816e-03,4.54
-2.813e-03,4.58
-2.810e-03,4.58
-2.806e-03,4.58
-2.803e-03,4.58
-2.800e-03,4.62
-2.797e-03,4.62
-2.794e-03,4.66
-2.790e-03,4.66
-2.787e-03,4.66
-2.784e-03,4.66
-2.781e-03,4.66
-2.778e-03,4.7
-2.774e-03,4.7
-2.771e-03,4.7
-2.768e-03,4.7
-2.765e-03,4.7
-2.762e-03,4.7
-2.758e-03,4.74
-2.755e-03,4.74
-2.752e-03,4.74
-2.749e-03,4.74
-2.746e-03,4.74
-2.742e-03,4.78
-2.739e-03,4.78
-2.736e-03,4.78
-2.733e-03,4.78
-2.730e-03,4.78
-2.726e-03,4.78
-2.723e-03,4.78
-2.720e-03,4.82
-2.717e-03,4.82
-2.714e-03,4.82
-2.710e-03,4.82
-2.707e-03,4.82
-2.704e-03,4.82
-2.701e-03,4.82
-2.698e-03,4.82
-2.694e-03,4.82
-2.691e-03,4.86
-2.688e-03,4.86
-2.685e-03,4.86
-2.682e-03,4.86
-2.678e-03,4.86
-2.675e-03,4.86
-2.672e-03,4.86
-2.669e-03,4.86
-2.666e-03,4.86
-2.662e-03,4.9
-2.659e-03,4.86
-2.656e-03,4.86
-2.653e-03,4.9
-2.650e-03,4.9
-2.646e-03,4.86
-2.643e-03,4.9
-2.640e-03,4.86
-2.637e-03,4.9
-2.634e-03,4.9
-2.630e-03,4.9
-2.627e-03,4.9
-2.624e-03,4.86
-2.621e-03,4.9
-2.618e-03,4.9
-2.614e-03,4.9
-2.611e-03,4.9
-2.608e-03,4.9
-2.605e-03,4.9
-2.602e-03,4.9
-2.598e-03,4.94
-2.595e-03,4.9
-2.592e-03,4.9
-2.589e-03,4.9
-2.586e-03,4.94
-2.582e-03,4.94
-2.579e-03,4.94
-2.576e-03,4.94
-2.573e-03,4.94
-2.570e-03,4.94
-2.566e-03,4.9
-2.563e-03,4.94
-2.560e-03,4.94
-2.557e-03,4.94
-2.554e-03,4.94
-2.550e-03,4.9
-2.547e-03,4.94
-2.544e-03,4.94
-2.541e-03,4.94
-2.538e-03,4.94
-2.534e-03,4.94
-2.531e-03,4.94
-2.528e-03,4.94
-2.525e-03,4.94
-2.522e-03,4.94
-2.518e-03,4.94
-2.515e-03,4.94
-2.512e-03,4.94
-2.509e-03,4.98
-2.506e-03,4.94
-2.502e-03,4.94
-2.499e-03,4.94
-2.496e-03,4.94
-2.493e-03,4.94
-2.490e-03,4.94
-2.486e-03,4.98
-2.483e-03,4.98
-2.480e-03,4.94
-2.477e-03,4.94
-2.474e-03,4.98
-2.470e-03,4.98
-2.467e-03,4.94
-2.464e-03,4.94
-2.461e-03,4.98
-2.458e-03,4.94
-2.454e-03,4.94
-2.451e-03,4.94
-2.448e-03,4.98
-2.445e-03,4.94
-2.442e-03,4.94
-2.438e-03,4.98
-2.435e-03,4.94
-2.432e-03,4.94
-2.429e-03,4.94
-2.426e-03,4.98
-2.422e-03,4.94
-2.419e-03,4.94
-2.416e-03,4.94
-2.413e-03,4.94
-2.410e-03,4.98
-2.406e-03,4.98
-2.403e-03,4.94
-2.400e-03,4.98
-2.397e-03,4.98
-2.394e-03,4.98
-2.390e-03,4.94
-2.387e-03,4.94
-2.384e-03,4.98
-2.381e-03,4.94
-2.378e-03,4.94
-2.374e-03,4.98
-2.371e-03,4.98
-2.368e-03,4.94
-2.365e-03,4.98
-2.362e-03,4.94
-2.358e-03,4.98
-2.355e-03,4.98
-2.352e-03,4.98
-2.349e-03,4.94
-2.346e-03,4.98
-2.342e-03,4.98
-2.339e-03,4.98
-2.336e-03,4.98
-2.333e-03,4.98
-2.330e-03,4.94
-2.326e-03,4.98
-2.323e-03,4.98
-2.320e-03,4.98
-2.317e-03,4.98
-2.314e-03,4.82
-2.310e-03,4.62
-2.307e-03,4.5
-2.304e-03,4.34
-2.301e-03,4.22
-2.298e-03,4.06
-2.294e-03,3.94
-2.291e-03,3.82
-2.288e-03,3.7
-2.285e-03,3.58
-2.282e-03,3.46
-2.278e-03,3.38
-2.275e-03,3.26
-2.272e-03,3.14
-2.269e-03,3.06
-2.266e-03,2.98
-2.262e-03,2.86
-2.259e-03,2.78
-2.256e-03,2.7
-2.253e-03,2.62
-2.250e-03,2.54
-2.246e-03,2.46
-2.243e-03,2.38
-2.240e-03,2.3
-2.237e-03,2.26
-2.234e-03,2.18
-2.230e-03,2.1
-2.227e-03,2.02
-2.224e-03,1.98
-2.221e-03,1.9
-2.218e-03,1.86
-2.214e-03,1.78
-2.211e-03,1.74
-2.208e-03,1.7
-2.205e-03,1.62
-2.202e-03,1.58
-2.198e-03,1.54
-2.195e-03,1.5
-2.192e-03,1.46
-2.189e-03,1.38
-2.186e-03,1.34
-2.182e-03,1.34
-2.179e-03,1.3
-2.176e-03,1.26
-2.173e-03,1.22
-2.170e-03,1.18
-2.166e-03,1.14
-2.163e-03,1.1
-2.160e-03,1.06
-2.157e-03,1.02
-2.154e-03,1.02
-2.150e-03,0.98
-2.147e-03,0.94
-2.144e-03,0.9
-2.141e-03,0.86
-2.138e-03,0.86
-2.134e-03,0.82
-2.131e-03,0.82
-2.128e-03,0.78
-2.125e-03,0.78
-2.122e-03,0.74
-2.118e-03,0.7
-2.115e-03,0.7
-2.112e-03,0.7
-2.109e-03,0.66
-2.106e-03,0.62
-2.102e-03,0.62
-2.099e-03,0.58
-2.096e-03,0.58
-2.093e-03,0.58
-2.090e-03,0.54
-2.086e-03,0.54
-2.083e-03,0.5
-2.080e-03,0.5
-2.077e-03,0.5
-2.074e-03,0.5
-2.070e-03,0.46
-2.067e-03,0.46
-2.064e-03,0.46
-2.061e-03,0.42
-2.058e-03,0.42
-2.054e-03,0.42
-2.051e-03,0.38
-2.048e-03,0.38
-2.045e-03,0.38
-2.042e-03,0.38
-2.038e-03,0.34
-2.035e-03,0.34
-2.032e-03,0.34
-2.029e-03,0.34
-2.026e-03,0.3
-2.022e-03,0.3
-2.019e-03,0.3
-2.016e-03,0.3
-2.013e-03,0.3
-2.010e-03,0.26
-2.006e-03,0.26
-2.003e-03,0.26
-2.000e-03,0.26
-1.997e-03,0.26
-1.994e-03,0.26
-1.990e-03,0.26
-1.987e-03,0.22
-1.984e-03,0.22
-1.981e-03,0.22
-1.978e-03,0.22
-1.974e-03,0.22
-1.971e-03,0.22
-1.968e-03,0.22
-1.965e-03,0.18
-1.962e-03,0.22
-1.958e-03,0.18
-1.955e-03,0.18
-1.952e-03,0.18
-1.949e-03,0.18
-1.946e-03,0.18
-1.942e-03,0.14
-1.939e-03,0.14
-1.936e-03,0.18
-1.933e-03,0.14
-1.930e-03,0.14
-1.926e-03,0.18
-1.923e-03,0.14
-1.920e-03,0.14
-1.917e-03,0.14
-1.914e-03,0.14
-1.910e-03,0.14
-1.907e-03,0.14
-1.904e-03,0.14
-1.901e-03,0.14
-1.898e-03,0.14
-1.894e-03,0.14
-1.891e-03,0.14
-1.888e-03,0.1
-1.885e-03,0.1
-1.882e-03,0.14
-1.878e-03,0.1
-1.875e-03,0.1
-1.872e-03,0.1
-1.869e-03,0.1
-1.866e-03,0.1
-1.862e-03,0.1
-1.859e-03,0.1
-1.856e-03,0.1
-1.853e-03,0.1
-1.850e-03,0.1
-1.846e-03,0.1
-1.843e-03,0.1
-1.840e-03,0.1
-1.837e-03,0.1
-1.834e-03,0.06
-1.830e-03,0.1
-1.827e-03,0.1
-1.824e-03,0.1
-1.821e-03,0.1
-1.818e-03,0.1
-1.814e-03,0.1
-1.811e-03,0.1
-1.808e-03,0.1
-1.805e-03,0.06
-1.802e-03,0.06
-1.798e-03,0.06
-1.795e-03,0.06
-1.792e-03,0.06
-1.789e-03,0.06
-1.786e-03,0.06
-1.782e-03,0.06
-1.779e-03,0.06
-1.776e-03,0.06
-1.773e-03,0.06
-1.770e-03,0.06
-1.766e-03,0.06
-1.763e-03,0.06
-1.760e-03,0.06
-1.757e-03,0.06
-1.754e-03,0.06
-1.750e-03,0.06
-1.747e-03,0.06
-1.744e-03,0.06
-1.741e-03,0.06
-1.738e-03,0.06
-1.734e-03,0.06
-1.731e-03,0.06
-1.728e-03,0.06
-1.725e-03,0.06
-1.722e-03,0.06
-1.718e-03,0.06
-1.715e-03,0.06
-1.712e-03,0.06
-1.709e-03,0.06
-1.706e-03,0.06
-1.702e-03,0.06
-1.699e-03,0.06
-1.696e-03,0.06
-1.693e-03,0.06
-1.690e-03,0.06
-1.686e-03,0.06
-1.683e-03,0.06
-1.680e-03,0.06
-1.677e-03,0.06
-1.674e-03,0.06
-1.670e-03,0.06
-1.667e-03,0.06
-1.664e-03,0.06
-1.661e-03,0.06
-1.658e-03,0.06
-1.654e-03,0.06
-1.651e-03,0.06
-1.648e-03,0.06
-1.645e-03,0.06
-1.642e-03,0.06
-1.638e-03,0.06
-1.635e-03,0.06
-1.632e-03,0.06
-1.629e-03,0.06
-1.626e-03,0.06
-1.622e-03,0.06
-1.619e-03,0.06
-1.616e-03,0.06
-1.613e-03,0.06
-1.610e-03,0.06
-1.606e-03,0.06
-1.603e-03,0.06
-1.600e-03,0.06
-1.597e-03,0.06
-1.594e-03,0.06
-1.590e-03,0.06
-1.587e-03,0.06
-1.584e-03,0.06
-1.581e-03,0.06
-1.578e-03,0.06
-1.574e-03,0.06
-1.571e-03,0.06
-1.568e-03,0.06
-1.565e-03,0.14
-1.562e-03,0.3
-1.558e-03,0.46
-1.555e-03,0.58
-1.552e-03,0.74
-1.549e-03,0.9
-1.546e-03,1.02
-1.542e-03,1.14
-1.539e-03,1.26
-1.536e-03,1.34
-1.533e-03,1.5
-1.530e-03,1.58
-1.526e-03,1.7
-1.523e-03,1.82
-1.520e-03,1.9
-1.517e-03,2.02
-1.514e-03,2.1
-1.510e-03,2.18
-1.507e-03,2.3
-1.504e-03,2.38
-1.501e-03,2.42
-1.498e-03,2.5
-1.494e-03,2.58
-1.491e-03,2.7
-1.488e-03,2.74
-1.485e-03,2.82
-1.482e-03,2.9
-1.478e-03,2.94
-1.475e-03,3.02
-1.472e-03,3.06
-1.469e-03,3.14
-1.466e-03,3.18
-1.462e-03,3.26
-1.459e-03,3.3
-1.456e-03,3.34
-1.453e-03,3.38
-1.450e-03,3.46
-1.446e-03,3.5
-1.443e-03,3.54
-1.440e-03,3.58
-1.437e-03,3.62
-1.434e-03,3.66
-1.430e-03,3.74
-1.427e-03,3.74
-1.424e-03,3.78
-1.421e-03,3.82
-1.418e-03,3.86
-1.414e-03,3.9
-1.411e-03,3.9
-1.408e-03,3.94
-1.405e-03,3.98
-1.402e-03,4.02
-1.398e-03,4.02
-1.395e-03,4.1
-1.392e-03,4.1
-1.389e-03,4.14
-1.386e-03,4.14
-1.382e-03,4.18
-1.379e-03,4.22
-1.376e-03,4.22
-1.373e-03,4.26
-1.370e-03,4.26
-1.366e-03,4.3
-1.363e-03,4.3
-1.360e-03,4.34
-1.357e-03,4.34
-1.354e-03,4.38
-1.350e-03,4.38
-1.347e-03,4.42
-1.344e-03,4.42
-1.341e-03,4.42
-1.338e-03,4.46
-1.334e-03,4.46
-1.331e-03,4.5
-1.328e-03,4.5
-1.325e-03,4.5
-1.322e-03,4.54
-1.318e-03,4.54
-1.315e-03,4.58
-1.312e-03,4.54
-1.309e-03,4.58
-1.306e-03,4.58
-1.302e-03,4.58
-1.299e-03,4.58
-1.296e-03,4.62
-1.293e-03,4.62
-1.290e-03,4.62
-1.286e-03,4.66
-1.283e-03,4.66
-1.280e-03,4.7
-1.277e-03,4.7
-1.274e-03,4.7
-1.270e-03,4.7
-1.267e-03,4.7
-1.264e-03,4.7
-1.261e-03,4.7
-1.258e-03,4.74
-1.254e-03,4.74
-1.251e-03,4.74
-1.248e-03,4.78
-1.245e-03,4.74
-1.242e-03,4.78
-1.238e-03,4.78
-1.235e-03,4.78
-1.232e-03,4.78
-1.229e-03,4.78
-1.226e-03,4.78
-1.222e-03,4.78
-1.219e-03,4.78
-1.216e-03,4.82
-1.213e-03,4.82
-1.210e-03,4.82
-1.206e-03,4.82
-1.203e-03,4.82
-1.200e-03,4.82
-1.197e-03,4.86
-1.194e-03,4.82
-1.190e-03,4.82
-1.187e-03,4.86
-1.184e-03,4.86
-1.181e-03,4.86
-1.178e-03,4.86
-1.174e-03,4.86
-1.171e-03,4.86
-1.168e-03,4.86
-1.165e-03,4.86
-1.162e-03,4.86
-1.158e-03,4.9
-1.155e-03,4.9
-1.152e-03,4.86
-1.149e-03,4.86
-1.146e-03,4.9
-1.142e-03,4.9
-1.139e-03,4.9
-1.136e-03,4.9
-1.133e-03,4.9
-1.130e-03,4.9
-1.126e-03,4.9
-1.123e-03,4.9
-1.120e-03,4.9
-1.117e-03,4.9
-1.114e-03,4.9
-1.110e-03,4.9
-1.107e-03,4.9
-1.104e-03,4.9
-1.101e-03,4.9
-1.098e-03,4.9
-1.094e-03,4.94
-1.091e-03,4.9
-1.088e-03,4.94
-1.085e-03,4.9
-1.082e-03,4.9
-1.078e-03,4.94
-1.075e-03,4.94
-1.072e-03,4.9
-1.069e-03,4.94
-1.066e-03,4.94
-1.062e-03,4.94
-1.059e-03,4.94
-1.056e-03,4.94
-1.053e-03,4.94
-1.050e-03,4.94
-1.046e-03,4.94
-1.043e-03,4.94
-1.040e-03,4.94
-1.037e-03,4.94
-1.034e-03,4.9
-1.030e-03,4.94
-1.027e-03,4.94
-1.024e-03,4.94
-1.021e-03,4.94
-1.018e-03,4.94
-1.014e-03,4.98
-1.011e-03,4.94
-1.008e-03,4.94
-1.005e-03,4.94
-1.002e-03,4.94
-9.984e-04,4.94
-9.952e-04,4.94
-9.920e-04,4.94
-9.888e-04,4.98
-9.856e-04,4.98
-9.824e-04,4.94
-9.792e-04,4.94
-9.760e-04,4.94
-9.728e-04,4.98
-9.696e-04,4.98
-9.664e-04,4.98
-9.632e-04,4.94
-9.600e-04,4.94
-9.568e-04,4.98
-9.536e-04,4.98
-9.504e-04,4.94
-9.472e-04,4.94
-9.440e-04,4.94
-9.408e-04,4.98
-9.376e-04,4.98
-9.344e-04,4.94
-9.312e-04,4.94
-9.280e-04,4.98
-9.248e-04,4.94
-9.216e-04,4.94
-9.184e-04,4.98
-9.152e-04,4.98
-9.120e-04,4.98
-9.088e-04,4.98
-9.056e-04,4.98
-9.024e-04,4.94
-8.992e-04,4.94
-8.960e-04,4.94
-8.928e-04,4.98
-8.896e-04,4.98
-8.864e-04,4.98
-8.832e-04,4.98
-8.800e-04,4.98
-8.768e-04,4.98
-8.736e-04,4.98
-8.704e-04,4.98
-8.672e-04,4.98
-8.640e-04,4.98
-8.608e-04,4.98
-8.576e-04,4.98
-8.544e-04,4.98
-8.512e-04,4.94
-8.480e-04,4.98
-8.448e-04,4.98
-8.416e-04,4.98
-8.384e-04,4.94
-8.352e-04,4.94
-8.320e-04,4.98
-8.288e-04,4.98
-8.256e-04,4.94
-8.224e-04,4.98
-8.192e-04,4.98
-8.160e-04,4.94
-8.128e-04,4.78
-8.096e-04,4.62
-8.064e-04,4.46
-8.032e-04,4.3
-8.000e-04,4.18
-7.968e-04,4.06
-7.936e-04,3.9
-7.904e-04,3.78
-7.872e-04,3.66
-7.840e-04,3.54
-7.808e-04,3.46
-7.776e-04,3.34
-7.744e-04,3.26
-7.712e-04,3.14
-7.680e-04,3.06
-7.648e-04,2.94
-7.616e-04,2.86
-7.584e-04,2.74
-7.552e-04,2.66
-7.520e-04,2.58
-7.488e-04,2.54
-7.456e-04,2.42
-7.424e-04,2.34
-7.392e-04,2.26
-7.360e-04,2.22
-7.328e-04,2.14
-7.296e-04,2.1
-7.264e-04,2.02
-7.232e-04,1.94
-7.200e-04,1.9
-7.168e-04,1.82
-7.136e-04,1.78
-7.104e-04,1.7
-7.072e-04,1.66
-7.040e-04,1.62
-7.008e-04,1.58
-6.976e-04,1.5
-6.944e-04,1.46
-6.912e-04,1.42
-6.880e-04,1.38
-6.848e-04,1.34
-6.816e-04,1.34
-6.784e-04,1.26
-6.752e-04,1.22
-6.720e-04,1.22
-6.688e-04,1.18
-6.656e-04,1.14
-6.624e-04,1.1
-6.592e-04,1.06
-6.560e-04,1.02
-6.528e-04,0.98
-6.496e-04,0.98
-6.464e-04,0.94
-6.432e-04,0.9
-6.400e-04,0.86
-6.368e-04,0.86
-6.336e-04,0.82
-6.304e-04,0.82
-6.272e-04,0.78
-6.240e-04,0.74
-6.208e-04,0.74
-6.176e-04,0.7
-6.144e-04,0.7
-6.112e-04,0.66
-6.080e-04,0.66
-6.048e-04,0.62
-6.016e-04,0.62
-5.984e-04,0.62
-5.952e-04,0.58
-5.920e-04,0.58
-5.888e-04,0.54
-5.856e-04,0.54
-5.824e-04,0.54
-5.792e-04,0.5
-5.760e-04,0.5
-5.728e-04,0.46
-5.696e-04,0.46
-5.664e-04,0.46
-5.632e-04,0.42
-5.600e-04,0.42
-5.568e-04,0.42
-5.536e-04,0.42
-5.504e-04,0.38
-5.472e-04,0.38
-5.440e-04,0.38
-5.408e-04,0.38
-5.376e-04,0.34
-5.344e-04,0.34
-5.312e-04,0.34
-5.280e-04,0.3
-5.248e-04,0.3
-5.216e-04,0.3
-5.184e-04,0.3
-5.152e-04,0.3
-5.120e-04,0.3
-5.088e-04,0.3
-5.056e-04,0.26
-5.024e-04,0.26
-4.992e-04,0.26
-4.960e-04,0.22
-4.928e-04,0.22
-4.896e-04,0.26
-4.864e-04,0.22
-4.832e-04,0.22
-4.800e-04,0.22
-4.768e-04,0.22
-4.736e-04,0.18
-4.704e-04,0.18
-4.672e-04,0.22
-4.640e-04,0.22
-4.608e-04,0.18
-4.576e-04,0.18
-4.544e-04,0.18
-4.512e-04,0.18
-4.480e-04,0.18
-4.448e-04,0.18
-4.416e-04,0.18
-4.384e-04,0.18
-4.352e-04,0.18
-4.320e-04,0.14
-4.288e-04,0.18
-4.256e-04,0.14
-4.224e-04,0.14
-4.192e-04,0.14
-4.160e-04,0.14
-4.128e-04,0.14
-4.096e-04,0.14
-4.064e-04,0.14
-4.032e-04,0.14
-4.000e-04,0.14
-3.968e-04,0.14
-3.936e-04,0.1
-3.904e-04,0.1
-3.872e-04,0.14
-3.840e-04,0.1
-3.808e-04,0.1
-3.776e-04,0.1
-3.744e-04,0.1
-3.712e-04,0.1
-3.680e-04,0.1
-3.648e-04,0.1
-3.616e-04,0.1
-3.584e-04,0.1
-3.552e-04,0.1
-3.520e-04,0.1
-3.488e-04,0.1
-3.456e-04,0.1
-3.424e-04,0.1
-3.392e-04,0.1
-3.360e-04,0.1
-3.328e-04,0.1
-3.296e-04,0.1
-3.264e-04,0.06
-3.232e-04,0.06
-3.200e-04,0.06
-3.168e-04,0.06
-3.136e-04,0.06
-3.104e-04,0.1
-3.072e-04,0.06
-3.040e-04,0.06
-3.008e-04,0.06
-2.976e-04,0.06
-2.944e-04,0.06
-2.912e-04,0.06
-2.880e-04,0.06
-2.848e-04,0.06
-2.816e-04,0.06
-2.784e-04,0.06
-2.752e-04,0.06
-2.720e-04,0.06
-2.688e-04,0.06
-2.656e-04,0.06
-2.624e-04,0.06
-2.592e-04,0.06
-2.560e-04,0.06
-2.528e-04,0.06
-2.496e-04,0.06
-2.464e-04,0.06
-2.432e-04,0.06
-2.400e-04,0.06
-2.368e-04,0.06
-2.336e-04,0.06
-2.304e-04,0.06
-2.272e-04,0.06
-2.240e-04,0.06
-2.208e-04,0.06
-2.176e-04,0.06
-2.144e-04,0.06
-2.112e-04,0.06
-2.080e-04,0.06
-2.048e-04,0.06
-2.016e-04,0.06
-1.984e-04,0.06
-1.952e-04,0.06
-1.920e-04,0.06
-1.888e-04,0.06
-1.856e-04,0.06
-1.824e-04,0.06
-1.792e-04,0.06
-1.760e-04,0.06
-1.728e-04,0.06
-1.696e-04,0.06
-1.664e-04,0.06
-1.632e-04,0.06
-1.600e-04,0.06
-1.568e-04,0.06
-1.536e-04,0.06
-1.504e-04,0.06
-1.472e-04,0.06
-1.440e-04,0.06
-1.408e-04,0.06
-1.376e-04,0.06
-1.344e-04,0.06
-1.312e-04,0.06
-1.280e-04,0.06
-1.248e-04,0.06
-1.216e-04,0.06
-1.184e-04,0.06
-1.152e-04,0.06
-1.120e-04,0.06
-1.088e-04,0.06
-1.056e-04,0.06
-1.024e-04,0.06
-9.920e-05,0.06
-9.600e-05,0.06
-9.280e-05,0.06
-8.960e-05,0.02
-8.640e-05,0.06
-8.320e-05,0.06
-8.000e-05,0.02
-7.680e-05,0.06
-7.360e-05,0.06
-7.040e-05,0.06
-6.720e-05,0.06
-6.400e-05,0.18
-6.080e-05,0.34
-5.760e-05,0.5
-5.440e-05,0.66
-5.120e-05,0.78
-4.800e-05,0.9
-4.480e-05,1.06
-4.160e-05,1.14
-3.840e-05,1.3
-3.520e-05,1.42
-3.200e-05,1.5
-2.880e-05,1.62
-2.560e-05,1.7
-2.240e-05,1.86
-1.920e-05,1.94
-1.600e-05,2.02
-1.280e-05,2.1
-9.600e-06,2.22
-6.400e-06,2.3
-3.200e-06,2.38
5.113e-17,2.46
3.200e-06,2.54
6.400e-06,2.62
9.600e-06,2.7
1.280e-05,2.78
1.600e-05,2.82
1.920e-05,2.9
2.240e-05,2.98
2.560e-05,3.02
2.880e-05,3.1
3.200e-05,3.14
3.520e-05,3.22
3.840e-05,3.26
4.160e-05,3.3
4.480e-05,3.38
4.800e-05,3.38
5.120e-05,3.42
5.440e-05,3.5
5.760e-05,3.54
6.080e-05,3.58
6.400e-05,3.66
6.720e-05,3.66
7.040e-05,3.7
7.360e-05,3.78
7.680e-05,3.78
8.000e-05,3.82
8.320e-05,3.86
8.640e-05,3.9
8.960e-05,3.94
9.280e-05,3.94
9.600e-05,3.98
9.920e-05,4.02
1.024e-04,4.06
1.056e-04,4.1
1.088e-04,4.1
1.120e-04,4.14
1.152e-04,4.14
1.184e-04,4.18
1.216e-04,4.18
1.248e-04,4.22
1.280e-04,4.26
1.312e-04,4.26
1.344e-04,4.26
1.376e-04,4.34
1.408e-04,4.34
1.440e-04,4.38
1.472e-04,4.38
1.504e-04,4.42
1.536e-04,4.42
1.568e-04,4.42
1.600e-04,4.46
1.632e-04,4.46
1.664e-04,4.5
1.696e-04,4.5
1.728e-04,4.5
1.760e-04,4.5
1.792e-04,4.54
1.824e-04,4.54
1.856e-04,4.54
1.888e-04,4.58
1.920e-04,4.58
1.952e-04,4.58
1.984e-04,4.62
2.016e-04,4.62
2.048e-04,4.62
2.080e-04,4.62
2.112e-04,4.66
2.144e-04,4.66
2.176e-04,4.7
2.208e-04,4.7
2.240e-04,4.7
2.272e-04,4.7
2.304e-04,4.7
2.336e-04,4.7
2.368e-04,4.74
2.400e-04,4.74
2.432e-04,4.74
2.464e-04,4.74
2.496e-04,4.74
2.528e-04,4.74
2.560e-04,4.74
2.592e-04,4.78
2.624e-04,4.78
2.656e-04,4.78
2.688e-04,4.74
2.720e-04,4.74
2.752e-04,4.78
2.784e-04,4.78
2.816e-04,4.82
2.848e-04,4.82
2.880e-04,4.82
2.912e-04,4.82
2.944e-04,4.82
2.976e-04,4.82
3.008e-04,4.86
3.040e-04,4.82
3.072e-04,4.82
3.104e-04,4.82
3.136e-04,4.82
3.168e-04,4.86
3.200e-04,4.86
3.232e-04,4.82
3.264e-04,4.86
3.296e-04,4.86
3.328e-04,4.86
3.360e-04,4.86
3.392e-04,4.86
3.424e-04,4.86
3.456e-04,4.86
3.488e-04,4.86
3.520e-04,4.86
3.552e-04,4.86
3.584e-04,4.86
3.616e-04,4.9
3.648e-04,4.86
3.680e-04,4.9
3.712e-04,4.9
3.744e-04,4.86
3.776e-04,4.9
3.808e-04,4.9
3.840e-04,4.9
3.872e-04,4.9
3.904e-04,4.9
3.936e-04,4.9
3.968e-04,4.9
4.000e-04,4.94
4.032e-04,4.9
4.064e-04,4.9
4.096e-04,4.94
4.128e-04,4.9
4.160e-04,4.94
4.192e-04,4.94
4.224e-04,4.94
4.256e-04,4.94
4.288e-04,4.94
4.320e-04,4.94
4.352e-04,4.94
4.384e-04,4.9
4.416e-04,4.9
4.448e-04,4.94
4.480e-04,4.94
4.512e-04,4.94
4.544e-04,4.9
4.576e-04,4.94
4.608e-04,4.94
4.640e-04,4.94
4.672e-04,4.94
4.704e-04,4.94
4.736e-04,4.94
4.768e-04,4.94
4.800e-04,4.94
4.832e-04,4.94
4.864e-04,4.9
4.896e-04,4.94
4.928e-04,4.94
4.960e-04,4.94
4.992e-04,4.94
5.024e-04,4.9
5.056e-04,4.94
5.088e-04,4.94
5.120e-04,4.94
5.152e-04,4.94
5.184e-04,4.94
5.216e-04,4.94
5.248e-04,4.94
5.280e-04,4.94
5.312e-04,4.94
5.344e-04,4.94
5.376e-04,4.94
5.408e-04,4.94
5.440e-04,4.94
5.472e-04,4.94
5.504e-04,4.98
5.536e-04,4.94
5.568e-04,4.94
5.600e-04,4.94
5.632e-04,4.94
5.664e-04,4.94
5.696e-04,4.98
5.728e-04,4.98
5.760e-04,4.98
5.792e-04,4.94
5.824e-04,4.94
5.856e-04,4.98
5.888e-04,4.98
5.920e-04,4.98
5.952e-04,4.94
5.984e-04,4.94
6.016e-04,4.98
6.048e-04,4.98
6.080e-04,4.98
6.112e-04,4.94
6.144e-04,4.98
6.176e-04,4.94
6.208e-04,4.98
6.240e-04,4.94
6.272e-04,4.94
6.304e-04,4.98
6.336e-04,4.98
6.368e-04,4.98
6.400e-04,4.98
6.432e-04,4.94
6.464e-04,4.94
6.496e-04,4.94
6.528e-04,4.98
6.560e-04,4.98
6.592e-04,4.94
6.624e-04,4.98
6.656e-04,4.94
6.688e-04,4.98
6.720e-04,4.98
6.752e-04,4.98
6.784e-04,4.98
6.816e-04,4.94
6.848e-04,4.9
6.880e-04,4.7
6.912e-04,4.58
6.944e-04,4.42
6.976e-04,4.3
7.008e-04,4.14
7.040e-04,4.02
7.072e-04,3.86
7.104e-04,3.78
7.136e-04,3.62
7.168e-04,3.54
7.200e-04,3.38
7.232e-04,3.3
7.264e-04,3.22
7.296e-04,3.1
7.328e-04,3.02
7.360e-04,2.94
7.392e-04,2.82
7.424e-04,2.74
7.456e-04,2.62
7.488e-04,2.58
7.520e-04,2.5
7.552e-04,2.42
7.584e-04,2.34
7.616e-04,2.26
7.648e-04,2.18
7.680e-04,2.14
7.712e-04,2.06
7.744e-04,1.98
7.776e-04,1.94
7.808e-04,1.9
7.840e-04,1.82
7.872e-04,1.78
7.904e-04,1.7
7.936e-04,1.66
7.968e-04,1.62
8.000e-04,1.58
8.032e-04,1.5
8.064e-04,1.46
8.096e-04,1.42
8.128e-04,1.34
8.160e-04,1.34
8.192e-04,1.3
8.224e-04,1.26
8.256e-04,1.22
8.288e-04,1.18
8.320e-04,1.14
8.352e-04,1.14
